name	born	matches_youth	matches_repre	goals_youth	goals_repre
DOMINIK PACOVSKÝ	8.6.1990	44	0	24	0
PETR HRUŠKA	3.1.1990	80	0	2	0
TOMÁŠ VOŠVRDA	12.9.1989	946	0	54	0
DOMINIK BOHÁČ	18.2.1990	27	0	0	0
MARTIN ROHAN	26.6.1990	23	0	3	0
JAN DALECKÝ	10.3.1990	25	0	7	0
MARTIN PLÁNĚK	12.7.1991	30	10	1	1
MAREK MAZANEC	18.7.1991	1231	0	67	0
ANDREJ ŠUSTR	29.11.1990	11	0	0	0
ROBERT ŘÍČKA	20.6.1989	3	0	0	0
PAVEL FRANCOUZ	3.6.1990	944	366	33	13
ANDREJ NESTRAŠIL	22.2.1991	44	0	14	0
ROMAN HORÁK	21.5.1991	60	0	18	0
TOMÁŠ DOLEŽAL	29.9.1990	40	0	8	0
JAN LÁTAL	21.3.1990	9	0	0	0
JAKUB MUŽÍK	16.1.1990	13	0	0	0
ANTONÍN MELKA	14.3.1990	7	0	2	0
ROBERT KOUSAL	7.10.1990	44	11	8	1
LUKÁŠ RADIL	5.8.1990	16	22	3	5
DOMINIK FURCH	19.4.1990	2073	60	92	2
MICHAL JORDÁN	17.7.1990	67	24	2	2
ZDENĚK OKÁL	8.7.1990	25	0	11	0
TOMÁŠ RACHŮNEK	26.2.1991	55	11	19	0
ONDŘEJ PALÁT	28.3.1991	61	3	20	0
JAN RUTTA	29.7.1990	40	1	1	0
DAN RŮŽIČKA	31.12.1991	54	0	4	0
LUKÁŠ ŽEJDL	7.8.1991	15	0	3	0
DANIEL HORA	20.3.1991	11	0	0	0
DAVID TŮMA	4.5.1991	34	0	8	0
ROBIN SOUDEK	31.7.1991	39	0	10	0
ONDŘEJ HOLOMEK	9.8.1990	3	0	0	0
MICHAL HLINKA	19.3.1991	54	0	14	0
PETR ŠENKEŘÍK	13.3.1991	50	0	7	0
RADIM HEŘMAN	13.4.1991	30	0	10	0
ROSTISLAV MAROSZ	23.2.1991	29	0	9	0
JAKUB JEŘÁBEK	12.5.1991	59	5	9	0
BOHUMIL JANK	6.7.1992	70	12	14	1
DANIEL SKALICKÝ	5.2.1991	29	0	3	0
ADAM POLÁŠEK	12.7.1991	35	8	5	1
JAN BUCHTELE	21.7.1990	10	11	4	0
ADAM SEDLÁK	21.9.1991	39	0	1	0
VLADIMÍR EMINGER	3.4.1992	20	0	1	0
OLDŘICH HORÁK	9.1.1991	59	0	2	0
PETR KOUSALÍK	7.2.1991	7	0	0	0
MICHAL POLETÍN	9.6.1991	43	0	9	0
ONDŘEJ HAVLÍČEK	18.6.1991	39	0	8	0
LUKÁŠ KUŽEL	22.7.1991	7	0	0	0
JAKUB LEV	6.12.1990	10	3	2	0
ROMAN WILL	22.5.1992	874	0	54	0
PETR MRÁZEK	14.2.1992	1308	9	52	2
JAKUB ČECH	13.8.1985	772	0	42	0
JAN DOSKOČIL	25.2.1992	18	0	7	0
JAKUB KREJČÍK	25.6.1991	10	54	0	1
JAKUB STRNAD	16.2.1992	39	0	6	0
RICHARD JARŮŠEK	8.8.1991	17	1	5	0
PETR KOLOUCH	30.10.1991	12	0	3	0
LUKÁŠ KUCSERA	9.9.1991	7	0	1	0
JAKUB ŠLAHAŘ	26.4.1991	29	0	7	0
JAKUB HERMAN	21.2.1992	42	0	9	0
ANTONÍN HONEJSEK	19.12.1991	45	2	21	0
DALIBOR ŘEZNÍČEK	25.8.1991	19	0	0	0
MARTIN MATĚJÍČEK	4.9.1991	7	0	0	0
TOMÁŠ VALENTA	13.4.1992	61	0	2	0
JAN ZDRÁHAL	26.5.1991	7	0	0	0
MAREK HRBAS	4.3.1993	54	0	10	0
TOMÁŠ PACANDA	11.1.1992	34	0	15	0
PETR STRAKA	15.6.1992	45	0	9	0
MICHAL BULÍŘ	12.8.1991	15	0	0	0
HYNEK ZOHORNA	1.8.1990	4	0	0	0
PETR KANKO	7.2.1984	36	0	4	0
FILIP NOVOTNÝ	6.5.1991	1842	0	164	0
ROMAN VONDRÁČEK	26.9.1984	54	0	4	0
DAVID MUSIL	9.4.1993	46	0	4	0
DAVID OSTŘÍŽEK	1.10.1990	14	0	2	0
PAVEL SEDLÁČEK	26.9.1991	4	0	1	0
LIBOR KAŠÍK	31.3.1992	1045	0	65	0
FILIP PAVLÍK	20.7.1992	48	0	8	0
MICHAL VACHOVEC	15.7.1992	39	0	10	0
JAKUB CULEK	7.9.1992	31	0	4	0
MAREK HEMSKÝ	26.8.1992	3	0	0	0
ADAM ŘEHÁK	26.9.1992	32	0	14	0
JAN DLOUHÝ	30.6.1992	180	0	8	0
DANIEL KREJČÍ	27.4.1992	47	0	5	0
MICHAL ŽVATORA	4.5.1992	13	0	0	0
TOMÁŠ KRÁL	29.12.1992	549	0	32	0
JAROSLAV VLACH	6.4.1992	33	0	4	0
DMITRIJ JAŠKIN	23.3.1993	30	0	21	0
MAREK RAČUK	2.6.1992	19	0	3	0
JAN LUKÁŠ	2.6.1993	859	0	44	0
MARTIN FRK	5.10.1993	47	0	22	0
PAVEL SMOLKA	12.3.1992	14	0	1	0
DOMINIK UHER	31.12.1992	18	0	2	0
TOMÁŠ FILIPPI	4.5.1992	40	19	18	2
DAVID STACH	22.2.1992	33	0	3	0
LUKÁŠ HORÁK	5.10.1993	160	0	10	0
MICHAL ŠVIHÁLEK	29.4.1993	71	0	24	0
LUKÁŠ KRÁLÍK	14.3.1993	43	0	12	0
TOMÁŠ RUBEŠ	25.9.1992	19	0	3	0
JIŘÍ RYS	31.3.1992	34	0	9	0
DAVID ROUPEC	23.5.1992	9	0	0	0
ZDENĚK ČÁP	12.6.1992	8	0	0	0
TOMÁŠ NOSEK	1.9.1992	21	9	2	3
TOMÁŠ BARTEJS	4.9.1992	4	0	0	0
JIŘÍ SEKÁČ	10.6.1992	28	22	9	2
PETR GEWIESE	11.3.1993	5	0	0	0
ONDŘEJ STARÝ	12.1.1993	30	0	1	0
TOMÁŠ FOŘT	7.5.1992	19	0	6	0
JAROSLAV PAVELKA	12.9.1993	806	0	41	0
DANIEL SOBOTKA	15.8.1992	3	0	0	0
MAREK ČERVENÝ	27.4.1993	18	0	0	0
PETR HOLÍK	3.3.1992	55	10	24	2
JAN KÁŇA	4.1.1992	3	0	1	0
PETR ZÁMORSKÝ	3.8.1992	54	28	3	1
PETR ŠIDLÍK	18.1.1994	70	0	5	0
JAROMÍR KVERKA	24.1.1992	21	0	6	0
DUŠAN ŽOVINEC	5.10.1992	36	0	1	0
DAVID DVOŘÁČEK	4.6.1992	23	0	4	0
TOMÁŠ HYKA	23.3.1993	54	0	16	0
ANTONÍN RŮŽIČKA	29.1.1993	27	0	0	0
JAN MÜLLER	8.5.1992	8	0	2	0
ONDŘEJ NĚMEC	18.4.1984	56	114	4	12
PAVEL PÍSAŘÍK	5.10.1993	21	0	1	0
JAN DANEČEK	15.2.1986	19	0	7	0
LUKÁŠ KREJČÍK	15.10.1990	4	0	1	0
JAKUB ORSAVA	27.2.1991	37	11	7	0
VOJTĚCH MOZÍK	26.12.1992	15	18	2	2
MILAN DOUDERA	1.1.1993	31	5	4	0
PATRIK BARTOŠÁK	29.3.1993	486	0	24	0
TOMÁŠ HERTL	12.11.1993	36	37	6	5
PETR BERÁNEK	8.7.1993	24	0	5	0
VOJTĚCH TOMEČEK	12.8.1994	58	0	14	0
ERIK NĚMEC	21.12.1993	27	0	6	0
TOMÁŠ PAVELKA	29.5.1993	48	0	2	0
JAN HAMMERBAUER	15.4.1993	4	0	0	0
KAREL PLÁŠIL	25.4.1994	53	0	5	0
LUKÁŠ SEDLÁK	25.2.1993	59	0	11	0
PETR MRÁZEK	17.8.1994	11	0	2	0
DAVID BŘEZINA	19.2.1993	54	0	9	0
JIŘÍ PŮHONÝ	27.8.1992	14	0	2	0
MICHAL KEMPNÝ	8.9.1990	29	16	0	0
ZDENĚK DOLEŽAL	7.5.1993	53	0	11	0
TOMÁŠ ROUSEK	9.9.1993	54	0	13	0
RADEK FAKSA	9.1.1994	37	0	13	0
JIŘÍ ŘÍHA	18.9.1992	15	0	1	0
JAKUB KOLÁŘ	15.6.1992	9	0	1	0
JAN WASSERBAUER	5.1.1993	23	0	3	0
MATĚJ BERAN	11.11.1993	38	0	10	0
TOMÁŠ KVAPIL	28.4.1993	51	0	5	0
JAKUB ŠAUR	27.3.1992	4	0	1	0
PETR STLOUKAL	18.6.1993	9	0	0	0
ŠTĚPÁN JENÍK	12.2.1993	64	0	0	0
PETR KOBLASA	7.11.1993	44	0	8	0
DANIEL PŘIBYL	18.12.1992	20	0	5	0
DANIEL DOLEJŠ	4.7.1994	1316	0	70	0
MICHAL PLUTNAR	21.2.1994	46	0	2	0
RADEK HAVEL	30.5.1994	33	0	1	0
PATRIK MACHAČ	23.4.1994	52	0	10	0
LUKÁŠ CHALUPA	28.12.1993	10	0	0	0
MATĚJ PSOTA	24.1.1994	56	0	9	0
TOMÁŠ FRANEK	10.5.1994	18	0	1	0
RADIM MATUŠ	20.10.1993	18	0	8	0
PATRIK URBANEC	9.10.1993	4	0	0	0
VOJTĚCH ZADRAŽIL	3.4.1993	26	0	2	0
JOSEF MIKYSKA	12.7.1994	25	0	3	0
DOMINIK VOLEK	12.1.1994	49	0	24	0
RONALD KNOT	3.8.1994	59	0	2	0
PATRIK MARCEL	27.11.1994	33	0	3	0
JAN SCHLEISS	1.9.1994	35	0	2	0
DOMINIK HRACHOVINA	29.8.1994	413	0	28	0
ADAM RAŠKA	26.11.1994	20	0	5	0
JAN ŠTENCEL	26.2.1995	86	0	7	0
LIBOR ŠULÁK	4.3.1994	44	0	1	0
DOMINIK TEJNOR	28.1.1994	19	0	1	0
MARTIN PROCHÁZKA	1.3.1994	68	0	15	0
JIŘÍ FRONK	7.2.1994	26	0	10	0
MARTIN KASPERLÍK	10.6.1993	8	0	1	0
JAN HUDEČEK	7.10.1994	70	0	17	0
TOMÁŠ HARKABUS	16.3.1994	9	0	1	0
LUBOŠ ROB	18.4.1995	78	0	21	0
DAVID PASTRŇÁK	25.5.1996	65	0	25	0
ONDŘEJ MIKLIŠ	5.5.1996	72	0	0	0
JIŘÍ BĚHAL	25.5.1994	38	0	1	0
LUKÁŠ BUCHTA	5.12.1994	46	0	1	0
PAVEL SEDLÁČEK	19.3.1994	60	0	3	0
PATRIK ZDRÁHAL	9.4.1995	52	0	26	0
JAN ŠČOTKA	20.5.1996	64	0	0	0
MARTIN KOHOUT	17.1.1995	55	0	11	0
MIROSLAV INDRÁK	12.8.1995	40	0	12	0
DAVID NĚMEČEK	29.6.1995	44	0	5	0
ROMAN PŘIKRYL	11.2.1995	80	0	6	0
ADAM DLOUHÝ	29.11.1994	32	0	6	0
MAREK RŮŽIČKA	10.4.1995	21	0	7	0
DAVID KÄMPF	12.1.1995	58	0	6	0
ONDŘEJ KAŠE	8.11.1995	54	0	10	0
JAKUB VRÁNA	28.2.1996	83	0	42	0
VOJTĚCH ŠILHAVÝ	20.10.1994	6	0	0	0
MARTIN KOKEŠ	13.6.1995	59	0	4	0
JAN KOŠŤÁLEK	17.2.1995	59	0	5	0
DOMINIK SIMON	8.8.1994	56	23	19	5
DOMINIK MAŠÍN	1.2.1996	77	0	5	0
JIŘÍ KURKA	31.3.1994	9	0	1	0
FILIP PYROCHTA	24.6.1996	73	0	7	0
ALEŠ JERGL	18.4.1994	10	0	1	0
ALEX RAŠNER	12.2.1996	45	0	3	0
PAVEL ZACHA	6.4.1997	69	0	23	0
JAKUB ZBOŘIL	21.2.1997	83	0	14	0
VÍTEK VANĚČEK	9.1.1996	2802	0	130	0
ALEŠ STEZKA	6.1.1997	1510	0	81	0
DANIEL VOŽENÍLEK	10.2.1996	34	0	1	0
RADEK VESELÝ	5.5.1996	64	0	12	0
JAN ORDOŠ	18.9.1996	59	0	10	0
JIŘÍ KEPKA	16.5.1995	51	0	2	0
DAVID SKLENIČKA	8.9.1996	30	0	1	0
JIŘÍ SMEJKAL	5.11.1996	52	0	22	0
DANIEL VLADAŘ	20.8.1997	1574	0	80	0
TOMÁŠ ŠOUSTAL	15.2.1997	20	0	2	0
FILIP CHLAPÍK	3.6.1997	59	0	16	0
DAVID KAŠE	28.1.1997	73	0	18	0
MICHAEL ŠPAČEK	9.4.1997	68	0	25	0
DOMINIK LAKATOŠ	8.4.1997	18	0	3	0
ŠIMON STRÁNSKÝ	21.12.1997	50	0	11	0
FILIP HRONEK	2.11.1997	28	0	4	0
MICHAEL FOLTÝN	6.10.1994	3	0	0	0
DAVID STIEBER	28.6.1998	36	0	9	0
MICHAL BARINKA	12.6.1984	38	62	2	1
TOMÁŠ LINHART	16.2.1984	50	6	1	0
MILAN MICHÁLEK	7.12.1984	51	53	3	11
VOJTĚCH POLÁK	27.6.1985	49	2	7	0
TOMÁŠ CSABI	16.11.1984	48	0	0	0
PETR VRÁNA	29.3.1985	41	29	2	5
TOMÁŠ FLEISCHMANN	16.5.1984	24	33	2	9
MAREK CHVÁTAL	27.1.1984	52	0	1	0
JAKUB KLEPIŠ	5.6.1984	54	100	9	28
JIŘÍ HUNKES	31.7.1984	29	12	0	0
ROSTISLAV OLESZ	10.10.1985	42	40	8	4
BEDŘICH KÖHLER	14.2.1985	12	4	0	0
LUKÁŠ MENSATOR	18.8.1984	1781	545	69	32
KAMIL KREPS	18.11.1984	45	12	3	2
JIŘÍ HUDLER	4.1.1984	38	47	7	14
LUKÁŠ PABIŠKA	24.2.1984	29	2	1	0
JAKUB EVAN	25.2.1984	36	0	0	0
DAVID TOMÁŠEK	10.2.1996	13	0	4	0
CTIRAD OVČAČÍK	18.10.1984	46	0	4	0
ROMAN POLÁK	28.4.1986	22	21	1	0
ROMAN BÍLEK	23.2.1984	23	0	0	0
JAROSLAV BARTOŇ	26.3.1987	26	0	1	0
MARTIN HEIDER	17.8.1986	3	0	0	0
STANISLAV BALÁN	30.1.1986	29	0	7	0
ONDŘEJ MAŠEK	9.6.1987	22	0	1	0
MARTIN HANZAL	20.2.1987	38	27	10	1
TOMÁŠ ŠTRYNCL	12.1.1987	13	0	2	0
JAN RUDOVSKÝ	6.1.1987	10	0	1	0
MICHAEL KOLARZ	12.1.1987	57	0	2	0
ANTONÍN ŠTELMACH	3.1.1986	70	0	3	0
VLADISLAV VRTEK	20.12.1987	22	0	5	0
JOSEF TICHÝ	11.7.1988	8	0	0	0
MICHAL NEDVÍDEK	13.5.1987	264	0	9	0
PAVEL BŘEZINA	24.2.1986	3	0	0	0
RADIM HRUŠKA	12.10.1984	26	0	2	0
MARTIN ZÁBRANSKÝ	4.11.1987	15	0	0	0
TOMÁŠ KUDĚLKA	10.3.1987	48	11	8	0
ALEXANDER SALÁK	5.1.1987	668	2092	26	77
PETR FREIBERG	26.8.1987	3	0	0	0
JAN ZAPLETAL	21.8.1986	8	0	0	0
JIŘÍ BERÁNEK	10.1.1986	3	0	0	0
TOMÁŠ HUDÍČEK	10.3.1987	8	0	2	0
LUKÁŠ ENDÁL	8.12.1986	10	0	2	0
ONDŘEJ NAKLÁDAL	12.6.1986	4	0	0	0
TOMÁŠ FENDEK	13.1.1986	7	0	0	0
MARTIN RÝGL	14.5.1986	16	0	2	0
JAN ŠVRČEK	17.4.1986	22	0	0	0
VOJTĚCH KLOZ	23.1.1986	8	0	0	0
JAKUB BAUER	15.1.1986	12	0	0	0
TOMÁŠ ŠTŮRALA	5.1.1985	334	0	14	0
JOSEF HRABAL	17.8.1985	28	20	0	2
JAKUB KINDL	10.2.1987	48	19	2	2
JAROSLAV MRÁZEK	14.1.1986	28	0	0	0
MARTIN LOJEK	19.8.1985	19	8	1	1
ZBYNĚK HRDEL	19.8.1985	13	0	0	0
MAREK SCHWARZ	1.4.1986	2024	280	151	15
DAVID ŠVAGROVSKÝ	21.12.1984	20	0	0	0
JAKUB HULVA	6.5.1984	28	0	1	0
TOMÁŠ PÖPPERLE	10.10.1984	353	358	9	13
MARTIN ŠTEFL	18.5.1986	120	0	4	0
IVO KRATĚNA	7.5.1985	31	0	0	0
MICHAL POLÁK	11.1.1985	36	0	2	0
MARTIN VÁGNER	16.3.1984	32	0	0	0
MARTIN RŮŽIČKA	15.12.1985	6	39	0	3
KAREL TON	1.7.1987	18	0	4	0
ONDŘEJ POŽIVIL	22.4.1987	40	0	1	0
JOSEF VÁVRA	17.3.1984	36	0	0	0
PETR JELÍNEK	19.6.1984	12	0	1	0
JIŘÍ DRTINA	1.3.1985	40	1	1	0
ONDŘEJ STANĚK	19.2.1984	5	0	0	0
JAKUB ŠINDEL	24.1.1986	56	2	15	1
MICHAL PŠURNÝ	23.2.1986	17	0	2	0
DAVID KVĚTOŇ	3.1.1988	57	18	9	0
MICHAL KLÍMA	27.2.1987	8	0	2	0
JAKUB VOJTA	8.2.1987	58	0	6	0
JAN KOLÁŘ	22.11.1986	10	42	1	3
JAKUB SKLENÁŘ	20.3.1988	48	0	14	0
ROMAN PŠURNÝ	23.2.1986	17	0	8	0
TOMÁŠ GROFEK	10.4.1988	22	0	0	0
PETR KALUS	29.6.1987	43	4	6	0
RADEK SMOLEŇÁK	3.12.1986	11	27	0	2
ONDŘEJ FIALA	4.11.1987	15	0	3	0
JIŘÍ PILUŠA	22.1.1986	15	0	2	0
ADAM LUKAČOVIČ	16.4.1986	28	0	1	0
PETR HOŘAVA	22.7.1985	9	0	1	0
ANTONÍN DUŠEK	8.4.1986	7	0	1	0
RADEK FIALA	9.2.1986	827	0	35	0
VLADISLAV KOUTSKÝ	19.4.1985	1093	0	56	0
MATĚJ TROJOVSKÝ	12.10.1984	7	0	0	0
MICHAL BOROVANSKÝ	15.3.1985	21	0	1	0
MILAN HLUCHÝ	13.1.1985	20	0	4	0
JAKUB LANGHAMMER	17.8.1984	50	4	1	0
DAVID KUCHEJDA	12.6.1987	29	0	10	0
LUKÁŠ BOLF	20.2.1985	37	0	0	0
LUKÁŠ PULPÁN	23.6.1985	44	0	0	0
LADISLAV ŠMÍD	1.2.1986	56	33	7	0
PETR HRUŠKA	4.5.1986	6	0	0	0
DOMINIK KAMIŠ	6.9.1987	352	0	16	0
VLADIMÍR SOBOTKA	2.7.1987	31	26	14	9
PAVEL KUBĚNA	1.4.1988	54	0	10	0
JAN STARÝ	7.2.1986	18	2	2	0
MARTIN BUČEK	7.5.1986	20	0	4	0
JAKUB ŠTĚPÁNEK	20.6.1986	441	1975	15	84
PETR KICA	10.3.1986	3	0	0	0
MAREK KNEBL	21.7.1987	14	0	1	0
VÁCLAV MEIDL	27.5.1986	23	0	3	0
PETR FIALA	16.1.1986	4	0	0	0
MAREK LAŠ	24.1.1987	17	0	4	0
MARTIN HEŘMAN	23.6.1987	12	0	3	0
JAKUB NAKLÁDAL	30.12.1987	18	95	1	2
MICHAL NEVYHOŠTĚNÝ	9.1.1987	7	0	0	0
JIŘÍ TLUSTÝ	16.3.1988	53	16	13	3
LUKÁŠ DANEČEK	9.3.1988	849	0	38	0
PETR POHL	28.8.1986	27	10	8	0
PAVEL KUBIŠ	17.3.1985	14	14	1	1
DAVID KREJČÍ	28.4.1986	40	40	15	8
ZDENĚK BAHENSKÝ	3.1.1986	42	0	4	0
LUKÁŠ KAŠPAR	23.9.1985	46	62	4	9
JAKUB PETRUŽÁLEK	24.4.1985	15	48	2	10
KAREL HROMAS	27.1.1986	52	0	8	0
JAKUB ŠULC	16.12.1985	12	0	2	0
PETR CHALOUPKA	4.4.1986	16	0	0	0
DANIEL ŠPAČEK	9.1.1986	4	0	1	0
MICHAL GULAŠI	18.7.1986	31	11	0	0
MILAN GULAŠ	30.12.1985	8	27	0	1
JIŘÍ HANZAL	21.2.1985	3	0	0	0
TOMÁŠ MERTL	11.3.1986	14	1	5	0
MARTIN ČÍŽEK	17.5.1984	46	0	0	0
MICHAL BIRNER	2.3.1986	41	18	3	1
ROMAN ČERVENKA	10.12.1985	11	119	1	29
RADEK MÍKA	18.3.1984	3	0	0	0
PETR MACHÁČEK	19.10.1985	26	0	0	0
TOMÁŠ SVOBODA	24.2.1987	35	4	13	0
JIŘÍ SUCHÝ	3.1.1988	34	0	1	0
ONDŘEJ ŠMACH	21.7.1986	38	0	2	0
MICHAL KAZATEL	9.4.1988	42	0	14	0
LUKÁŠ KLIMEK	14.11.1986	12	5	1	0
ALEXANDR HEGEGY	21.10.1987	38	0	3	0
TOMÁŠ KOLAFA	7.2.1984	21	0	0	0
TOMÁŠ POSPÍŠIL	25.8.1987	30	3	8	0
JAROMÍR FLORIÁN	30.3.1987	11	0	0	0
STANISLAV POLODNA	3.4.1989	47	0	9	0
ONDŘEJ JEŽEK	11.6.1987	7	0	0	0
JAKUB MATUŠÍK	20.6.1987	13	0	2	0
JAKUB ČERNÝ	5.3.1987	37	1	6	1
JAN KANOV	23.6.1987	16	0	0	0
PATRIK PROKOP	16.1.1988	43	0	6	0
MARTIN DUDÁŠ	17.3.1987	6	0	0	0
VÁCLAV KŘÍŽ	4.3.1987	7	0	0	0
TOMÁŠ VRBA	25.9.1987	14	0	2	0
TOMÁŠ KÁŇA	29.11.1987	47	0	8	0
RADIM OSTRČIL	15.1.1989	49	0	4	0
LUKÁŠ RINDOŠ	23.8.1987	8	0	2	0
DAVID ZÍMA	25.7.1988	7	0	0	0
DANIEL RÁKOS	25.5.1987	22	0	1	0
MICHAL ŘEPÍK	31.12.1988	35	1	8	0
PATRIK FLAŠAR	4.4.1987	18	0	4	0
ZBYNĚK HAMPL	22.3.1988	19	0	2	0
MARTIN ONDRÁČEK	8.10.1987	9	0	0	0
MICHAL PALÍK	23.8.1987	12	0	1	0
JIŘÍ KORČÁK	11.7.1988	32	0	6	0
DANIEL BÁRTEK	2.10.1988	19	0	4	0
PETR OBDRŽÁLEK	26.9.1986	4	0	0	0
ANTONÍN DRBOHLAV	6.1.1988	39	0	4	0
MICHAEL FROLÍK	17.2.1988	67	31	21	5
MARTIN LÁTAL	17.3.1988	45	0	13	0
ONDŘEJ PAVELEC	31.8.1987	1026	2015	92	64
VÁCLAV LESÁK	21.2.1987	19	0	1	0
MARTIN RŮŽIČKA	1.6.1987	927	0	44	0
DAVID RŮŽIČKA	8.3.1988	43	0	3	0
TOMÁŠ FIKRT	9.5.1988	1	0	0	0
LUKÁŠ VANTUCH	20.7.1987	27	4	2	0
JAKUB KOŘÍNEK	1.4.1988	16	0	3	0
LUKÁŠ LANG	14.10.1988	28	0	1	0
VLADIMÍR RŮŽIČKA	17.2.1989	57	0	10	0
ONDŘEJ ROMAN	8.2.1989	53	16	18	4
TOMÁŠ SCHMIDT	31.1.1989	35	0	2	0
LUKÁŠ MARTINEC	11.3.1988	10	0	1	0
KAREL KUBÁT	13.6.1988	19	4	2	1
TOMÁŠ PROSTŘEDNÍK	19.12.1987	23	0	1	0
JAN SOLDÁN	28.6.1988	18	0	0	0
DAVID KAJÍNEK	10.7.1988	14	0	0	0
JAKUB KOREIS	26.6.1984	52	0	1	0
JAKUB VORÁČEK	15.8.1989	60	57	22	9
JAKUB VALSKÝ	7.9.1988	12	14	0	3
MARTIN PODEŠVA	16.12.1988	4	0	0	0
DAVID ŠTICH	15.4.1989	42	4	2	2
LUKÁŠ CIKÁNEK	9.1.1988	581	0	30	0
BOHDAN VIŠŇÁK	2.3.1988	35	0	1	0
JIŘÍ JEBAVÝ	17.3.1989	58	0	0	0
JAKUB KACHLÍK	2.4.1989	42	0	5	0
LADISLAV JINDŘICH	26.6.1988	21	0	2	0
TOMÁŠ ZOHORNA	3.1.1988	13	18	0	2
JAN SEMORÁD	19.3.1988	37	0	5	0
MARTIN HOLÝ	4.5.1987	8	0	0	0
RUDOLF ČERVENÝ	6.8.1989	31	0	3	0
TOMÁŠ ROD	26.4.1988	22	0	5	0
PETR ZÍB	7.6.1988	14	0	0	0
MICHAL NEUVIRTH	23.3.1988	1253	0	47	0
PAVEL MRŇA	1.8.1988	16	0	4	0
LUKÁŠ RYBECKÝ	5.8.1988	13	0	1	0
MAREK TRONČINSKÝ	13.9.1988	26	13	1	0
JAN KLOZ	7.3.1987	15	0	5	0
PAVEL BOGUSKÝ	9.3.1988	4	0	0	0
JAN KOKTAN	9.11.1988	7	0	0	0
JAN ZMEŠKAL	1.4.1988	4	0	0	0
JAKUB MAXA	23.4.1989	36	0	6	0
PETR CHALUPA	22.11.1988	8	0	0	0
MATOUŠ VENKRBEC	11.5.1989	5	0	0	0
LUKÁŠ LUŇÁK	3.5.1989	23	0	1	0
LIBOR BEZDĚK	20.6.1988	5	0	1	0
MARTIN JANÁČEK	6.3.1989	26	0	1	0
RADEK MEIDL	25.11.1988	22	0	1	0
WERNER HARTMANN	26.4.1989	8	0	1	0
JIŘÍ ONDRÁČEK	3.6.1988	9	0	0	0
JAN KÁŇA	22.3.1990	57	0	29	0
JURAJ JURÍK	20.11.1989	15	0	3	0
ONDREJ ŠEDIVÝ	30.9.1989	6	0	3	0
MATĚJ STŘÍTESKÝ	20.9.1990	64	2	10	0
TOMÁŠ KARPOV	9.3.1989	43	0	10	0
JAN EBERLE	20.5.1989	20	0	6	0
JAN SLABA	18.4.1989	5	0	0	0
ROBIN BLAŽÍČEK	16.3.1989	272	0	8	0
JAN PISKÁČEK	11.9.1989	23	2	2	0
ROMAN VLACH	21.6.1989	17	0	3	0
ANTONÍN BOŘUTA	26.10.1988	20	2	1	0
RADIM VALCHAŘ	20.4.1989	25	0	6	0
TOMÁŠ KUNDRÁTEK	26.12.1989	51	6	1	0
JAROSLAV HAFENRICHTER	22.1.1990	49	0	11	0
ROBIN HANZL	10.1.1989	7	0	1	0
JAKUB KANIA	16.12.1990	60	0	3	0
TOMÁŠ KUBALÍK	1.5.1990	59	2	23	0
TOMÁŠ VORÁČEK	27.2.1990	38	7	3	0
JAN STRÁNSKÝ	16.4.1990	52	0	14	0
VLADIMÍR ROTH	25.6.1990	33	6	4	0
PETR KAFKA	2.10.1989	28	0	7	0
JAKUB MAREČEK	24.11.1989	4	0	0	0
MAREK INDRA	11.4.1989	27	0	4	0
JAKUB SVOBODA	27.12.1989	2	6	0	0
ŠTĚPÁN NOVOTNÝ	21.9.1990	49	0	18	0
LUKÁŠ VAŘECHA	1.3.1990	3	0	0	0
ROMAN MALINÍK	6.2.1990	27	0	14	0
PETR STRAPÁČ	11.10.1989	20	2	2	0
ROMAN SZTURC	25.9.1989	37	0	6	0
JAKUB KOVÁŘ	19.7.1988	1599	2252	67	73
MARTIN MAZANEC	5.8.1989	4	0	0	0
JAN KOVÁŘ	20.3.1990	45	67	12	9
RADKO GUDAS	5.6.1990	77	3	8	0
FILIP LANDSMAN	3.5.1990	825	0	24	0
TOMÁŠ BLÁHA	30.9.1988	3	0	0	0
MARTIN PARÝZEK	23.3.1989	48	0	3	0
VLADIMÍR STEJSKAL	5.7.1989	4	0	0	0
MARTIN HAVRAN	2.10.1989	29	0	2	0
ADAM HAVLÍK	14.1.1991	42	0	6	0
JAKUB SEDLÁČEK	5.4.1990	1103	120	49	3
MILAN DÓCZY	27.1.1990	38	0	0	0
LUKÁŠ MATULA	22.10.1989	27	0	0	0
PETR ZEMAN	17.4.1989	4	0	0	0
PETR STOKLASA	18.4.1989	41	0	5	0
TOMÁŠ VINCOUR	19.11.1990	56	10	15	2
